dump.vcd
$date
	Mon Jul  9 19:00:54 2018
$end

$version
	Synopsys VCS version J-2014.12-SP1-1
$end

$timescale
	1ns
$end

$comment Csum: 1 e4d69d43d0ad16ba $end


$scope module testbench $end

$scope module inf $end
$var wire 1 ! CLK $end
$var wire 1 " SCLK $end
$var reg 1 # RESET_N $end
$var reg 32 $ ADDR [31:0] $end
$var reg 3 % CMD [2:0] $end
$var reg 1 & CMDACK $end
$var reg 32 ' DATAIN [31:0] $end
$var reg 8 ( DATAOUT [7:0] $end
$var reg 33 ) SA [32:0] $end
$var reg 1 * RAS_N $end
$var reg 1 + CAS_N $end
$var reg 1 , WE_N $end
$var wire 16 - DQ [15:0] $end
$var reg 1 . R_DATAEND $end
$var reg 1 / W_DATAEND $end
$var wire 1 0 SCLK_N $end
$var reg 4 1 DM [3:0] $end
$var reg 2 2 BA [1:0] $end
$var reg 2 3 CS_N [1:0] $end
$var reg 1 4 CKE $end
$var reg 4 5 DQM [3:0] $end
$var reg 16 6 DQS [15:0] $end
$upscope $end

$upscope $end

$enddefinitions $end

#0
$dumpvars
1,
1+
1*
04
0&
0/
0.
1#
bxxxxxxxxxxxxxxxx 6
bxxxx 5
bxx 3
bxx 2
b0xxxxxxxxxxxxxxxxxxxxxxxxxxxxxxxx )
bxxxx 1
bxxxxxxxx (
bxxxxxxxxxxxxxxxxxxxxxxxxxxxxxxxx '
bxxxxxxxxxxxxxxxxxxxxxxxxxxxxxxxx $
b000 %
0!
0"
10
bxxxxxxxxxxxxxxxx -
$end
#5
1!
0#
#10
1"
00
0!
#15
1!
b001 %
b11111111111111110000000000000000 $
#20
0"
10
0!
#25
1!
1&
0*
b0xxxxxxxxxxxxxxxxxxxx000000000000 )
#30
1"
00
0!
#35
1!
0&
1*
b000 %
#40
0"
10
0!
#45
1!
#50
1"
00
0!
#55
1!
#60
0"
10
0!
#65
1!
0+
b011111111111111110000000000000000 )
#70
1"
00
0!
#75
1!
1+
#80
0"
10
0!
#85
1!
#90
1"
00
0!
b0000000000000011 -
#95
1!
#100
0"
10
0!
#105
1!
#110
1"
00
0!
b0000000000000100 -
#115
1!
#120
0"
10
0!
#125
1!
#130
1"
00
0!
b0000000000000101 -
#135
1!
#140
0"
10
0!
#145
1!
#150
1"
00
0!
b0000000000000110 -
#155
1!
#160
0"
10
0!
#165
1!
#170
1"
00
0!
b0000000000000111 -
#175
1!
#180
0"
10
0!
#185
1!
#190
1"
00
0!
b0000000000001000 -
#195
1!
#200
0"
10
0!
#205
1!
#210
1"
00
0!
b0000000000001001 -
#215
1!
#220
0"
10
0!
#225
1!
#230
1"
00
0!
b0000000000001010 -
#235
1!
#240
0"
10
0!
#245
1!
#250
1"
00
0!
1.
bxxxxxxxxxxxxxxxx -
#255
1!
b01000011 (
#260
0"
10
0!
#265
1!
b01100101 (
#270
1"
00
0!
#275
1!
b10000111 (
#280
0"
10
0!
#285
1!
b10101001 (
#290
1"
00
0!
#295
1!
bxxxxxxxx (
#300
0"
10
0!
#305
1!
1#
b0xxxxxxxxxxxxxxxxxxxxxxxxxxxxxxxx )
#310
1"
00
0!
#315
1!
0#
#320
0"
10
0!
#325
1!
b010 %
b11111111111111110000000000000001 $
b00000000000000000000000000000001 '
#330
1"
00
0!
#335
1!
1&
0*
b0xxxxxxxxxxxxxxxxxxxx000000000001 )
#340
0"
10
0!
#345
1!
0&
1*
b000 %
#350
1"
00
0!
#355
1!
b00000000000000000000000000000010 '
#360
0"
10
0!
#365
1!
b00000000000000000000000000110010 '
#370
1"
00
0!
#375
1!
0+
0,
b011111111111111110000000000000001 )
b00000000000000000000010000110010 '
#380
0"
10
0!
#385
1!
1+
1,
b00000000000000000101010000110010 '
#390
1"
00
0!
#395
1!
b00000000000001100101010000110010 '
b0000000000000010 -
#400
0"
10
0!
#405
1!
b00000000011101100101010000110010 '
b0000000000000011 -
#410
1"
00
0!
#415
1!
b00001000011101100101010000110010 '
b0000000000000100 -
#420
0"
10
0!
#425
1!
b10011000011101100101010000110010 '
1/
b0000000000000101 -
#430
1"
00
0!
#435
1!
1#
b0000000000000110 -
#440
0"
10
0!
#445
1!
0#
b0000000000000111 -
#450
1"
00
0!
#455
1!
b011 %
b0000000000001000 -
#460
0"
10
0!
#465
1!
b0000000000001001 -
#470
1"
00
0!
#475
1!
b000000000000000x -
#480
0"
10
0!
#485
1!
1&
0*
0+
#490
1"
00
0!
#495
1!
0&
1*
1+
b000 %
