dump.vcd
$date
	Fri Jun 29 04:29:52 2018
$end

$version
	Synopsys VCS version J-2014.12-SP1-1
$end

$timescale
	1ns
$end

$comment Csum: 1 e4d69d43d0ad16ba $end


$scope module testbench $end

$scope module inf $end
$var wire 1 ! CLK $end
$var wire 1 " SCLK $end
$var reg 1 # RESET_N $end
$var reg 32 $ ADDR [31:0] $end
$var reg 3 % CMD [2:0] $end
$var reg 1 & CMDACK $end
$var reg 32 ' DATAIN [31:0] $end
$var reg 8 ( DATAOUT [7:0] $end
$var reg 33 ) SA [32:0] $end
$var reg 1 * RAS_N $end
$var reg 1 + CAS_N $end
$var reg 1 , WE_N $end
$var wire 16 - DQ [15:0] $end
$var reg 1 . DATAEND $end
$var wire 1 / SCLK_N $end
$var reg 4 0 DM [3:0] $end
$var reg 2 1 BA [1:0] $end
$var reg 2 2 CS_N [1:0] $end
$var reg 1 3 CKE $end
$var reg 4 4 DQM [3:0] $end
$var reg 16 5 DQS [15:0] $end
$upscope $end

$upscope $end

$enddefinitions $end

#0
$dumpvars
1,
1+
1*
03
0&
0.
1#
bxxxxxxxxxxxxxxxx 5
bxxxx 4
bxx 2
bxx 1
bxxxxxxxxxxxxxxxxxxxxxxxxxxxxxxxxx )
bxxxx 0
bxxxxxxxx (
bxxxxxxxxxxxxxxxxxxxxxxxxxxxxxxxx '
bxxxxxxxxxxxxxxxxxxxxxxxxxxxxxxxx $
b000 %
0!
0"
1/
bxxxxxxxxxxxxxxxx -
$end
#10
1!
0#
#20
1"
0/
0!
#30
1!
b001 %
b11111111111111110000000000000000 $
#40
0"
1/
0!
#50
1!
1&
0*
bxxxxxxxxxxxxxxxxxxxxx000000000000 )
#60
1"
0/
0!
#70
1!
b000 %
0&
1*
#80
0"
1/
0!
#90
1!
#100
1"
0/
0!
#110
1!
#120
0"
1/
0!
#130
1!
0+
b011111111111111110000000000000000 )
#140
1"
0/
0!
#150
1!
1+
#160
0"
1/
0!
#170
1!
#180
1"
0/
0!
b0000000000000011 -
#190
1!
#200
0"
1/
0!
#210
1!
#220
1"
0/
0!
b0000000000000100 -
#230
1!
#240
0"
1/
0!
#250
1!
#260
1"
0/
0!
b0000000000000101 -
#270
1!
#280
0"
1/
0!
#290
1!
#300
1"
0/
0!
b0000000000000110 -
#310
1!
#320
0"
1/
0!
#330
1!
#340
1"
0/
0!
b0000000000000111 -
#350
1!
#360
0"
1/
0!
#370
1!
#380
1"
0/
0!
b0000000000001000 -
#390
1!
#400
0"
1/
0!
#410
1!
#420
1"
0/
0!
b0000000000001001 -
#430
1!
#440
0"
1/
0!
#450
1!
#460
1"
0/
0!
b0000000000001010 -
#470
1!
#480
0"
1/
0!
#490
1!
#500
1"
0/
0!
1.
#510
1!
b01000011 (
#520
0"
1/
0!
#530
1!
b01100101 (
#540
1"
0/
0!
#550
1!
b10000111 (
#560
0"
1/
0!
#570
1!
b10101001 (
